flora_symbol(took,0,\@,368,49,function_symbol,nontransactional_symbol,'cs.flr').
flora_symbol('CR',0,\@,502,60,function_symbol,nontransactional_symbol,'cs.flr').
flora_symbol('Teacher',0,\@,37,10,function_symbol,nontransactional_symbol,'cs.flr').
flora_symbol(teaches,0,\@,358,49,function_symbol,nontransactional_symbol,'cs.flr').
flora_symbol('\\integer',0,\@,52,12,function_symbol,nontransactional_symbol,'cs.flr').
flora_symbol('Julien',0,\@,576,66,function_symbol,nontransactional_symbol,'cs.flr').
flora_symbol('G3',0,\@,564,64,function_symbol,nontransactional_symbol,'cs.flr').
flora_symbol('Number_Students',0,\@,115,26,function_symbol,nontransactional_symbol,'cs.flr').
flora_symbol(string,0,\@,112,25,function_symbol,nontransactional_symbol,'cs.flr').
flora_symbol('Domain',0,\@,41,11,function_symbol,nontransactional_symbol,'cs.flr').
flora_symbol('Popineau',0,\@,698,88,function_symbol,nontransactional_symbol,'cs.flr').
flora_symbol('Louzier',0,\@,487,58,function_symbol,nontransactional_symbol,'cs.flr').
flora_symbol('Last_name',0,\@,29,7,function_symbol,nontransactional_symbol,'cs.flr').
flora_symbol('Joined_In',0,\@,48,12,function_symbol,nontransactional_symbol,'cs.flr').
flora_symbol('\\string',0,\@,26,6,function_symbol,nontransactional_symbol,'cs.flr').
flora_symbol('First_name',0,\@,22,6,function_symbol,nontransactional_symbol,'cs.flr').
flora_symbol(true,0,\@,289,47,function_symbol,nontransactional_symbol,'cs.flr').
flora_symbol('GPT',0,\@,508,60,function_symbol,nontransactional_symbol,'cs.flr').
flora_symbol(professor,1,\@,344,49,function_symbol,nontransactional_symbol,'cs.flr').
flora_symbol('G2',0,\@,543,63,function_symbol,nontransactional_symbol,'cs.flr').
flora_symbol('Statistiques et Apprentissage',0,\@,647,78,function_symbol,nontransactional_symbol,'cs.flr').
flora_symbol('SA',0,\@,505,60,function_symbol,nontransactional_symbol,'cs.flr').
flora_symbol('Graduated_In',0,\@,66,17,function_symbol,nontransactional_symbol,'cs.flr').
flora_symbol('Connaissances et Raisonnement',0,\@,625,74,function_symbol,nontransactional_symbol,'cs.flr').
flora_symbol('Pinede',0,\@,594,68,function_symbol,nontransactional_symbol,'cs.flr').
flora_symbol('G1',0,\@,522,62,function_symbol,nontransactional_symbol,'cs.flr').
flora_symbol('Paul',0,\@,469,56,function_symbol,nontransactional_symbol,'cs.flr').
flora_symbol('Grade',0,\@,101,21,function_symbol,nontransactional_symbol,'cs.flr').
flora_symbol(has_grade,1,\@,94,21,function_symbol,nontransactional_symbol,'cs.flr').
flora_symbol('Mean_Grade',0,\@,80,19,function_symbol,nontransactional_symbol,'cs.flr').
flora_symbol('FP',0,\@,680,86,function_symbol,nontransactional_symbol,'cs.flr').
flora_symbol('Pass',0,\@,87,20,function_symbol,nontransactional_symbol,'cs.flr').
flora_symbol('Major',0,\@,73,18,function_symbol,nontransactional_symbol,'cs.flr').
flora_symbol('Fabrice',0,\@,691,87,function_symbol,nontransactional_symbol,'cs.flr').
flora_symbol(sum,2,\@,163,39,udf_symbol,nontransactional_symbol,'cs.flr').
flora_symbol(false,0,\@,316,48,function_symbol,nontransactional_symbol,'cs.flr').
flora_symbol('\\boolean',0,\@,91,20,function_symbol,nontransactional_symbol,'cs.flr').
flora_symbol('Course',0,\@,96,21,function_symbol,nontransactional_symbol,'cs.flr').
flora_symbol('Mathematics',0,\@,654,79,function_symbol,nontransactional_symbol,'cs.flr').
flora_symbol('Number',0,\@,126,30,function_symbol,nontransactional_symbol,'cs.flr').
flora_symbol('Person',0,\@,18,5,function_symbol,nontransactional_symbol,'cs.flr').
flora_symbol('Student',0,\@,56,15,function_symbol,nontransactional_symbol,'cs.flr').
flora_symbol('Artificial Intelligence',0,\@,632,75,function_symbol,nontransactional_symbol,'cs.flr').
flora_symbol('ChatGPT',0,\@,669,82,function_symbol,nontransactional_symbol,'cs.flr').
flora_symbol('Name',0,\@,108,25,function_symbol,nontransactional_symbol,'cs.flr').
